{
  "runtimeTarget": {
    "name": ".NETCoreApp,Version=v2.0",
    "signature": "18b15062a5ea6d60966973f3f390d44e02814423"
  },
  "compilationOptions": {},
  "targets": {
    ".NETCoreApp,Version=v2.0": {
      "rh/1.0.0-beta.1+24": {
        "dependencies": {
          "FluentNHibernate": "2.1.2",
          "Iesi.Collections": "4.0.4",
          "Microsoft.Build.Framework": "15.6.85",
          "MySql.Data": "8.0.11",
          "NHibernate": "5.1.1",
          "NHibernate.JetDriver": "2.0.0.1002",
          "Newtonsoft.Json": "11.0.2",
          "Polly": "5.9.0",
          "StructureMap": "4.6.1",
          "System.Configuration.ConfigurationManager": "4.4.1",
          "System.Data.SqlClient": "4.4.3",
          "System.Security.Principal.Windows": "4.4.1",
          "log4net": "2.0.8",
          "roundhouse": "0.8.9-alpha",
          "roundhouse.databases.mysql": "1.0.0",
          "roundhouse.databases.postgresql": "1.0.0",
          "roundhouse.databases.sqlite": "1.0.0",
          "roundhouse.databases.sqlserver": "1.0.0",
          "roundhouse.databases.sqlserver2000": "1.0.0",
          "roundhouse.databases.sqlserverce": "1.0.0"
        },
        "runtime": {
          "rh.dll": {}
        }
      },
      "Antlr3.Runtime/3.5.1": {
        "runtime": {
          "lib/netstandard1.1/Antlr3.Runtime.dll": {}
        }
      },
      "EntityFramework/6.2.0": {
        "runtime": {
          "lib/net45/EntityFramework.SqlServer.dll": {},
          "lib/net45/EntityFramework.dll": {}
        }
      },
      "FluentNHibernate/2.1.2": {
        "dependencies": {
          "NHibernate": "5.1.1"
        },
        "runtime": {
          "lib/netcoreapp2.0/FluentNHibernate.dll": {}
        }
      },
      "Google.Protobuf/3.5.1": {
        "runtime": {
          "lib/netstandard1.0/Google.Protobuf.dll": {}
        }
      },
      "Iesi.Collections/4.0.4": {
        "dependencies": {
          "System.Runtime.Serialization.Formatters": "4.3.0"
        },
        "runtime": {
          "lib/netstandard1.3/Iesi.Collections.dll": {}
        }
      },
      "log4net/2.0.8": {
        "dependencies": {
          "System.AppContext": "4.1.0",
          "System.Collections.NonGeneric": "4.0.1",
          "System.Console": "4.0.0",
          "System.Diagnostics.Debug": "4.3.0",
          "System.Diagnostics.Process": "4.1.0",
          "System.Diagnostics.StackTrace": "4.0.1",
          "System.Diagnostics.TraceSource": "4.0.0",
          "System.IO.FileSystem": "4.0.1",
          "System.IO.FileSystem.Watcher": "4.0.0",
          "System.Linq": "4.3.0",
          "System.Net.NameResolution": "4.0.0",
          "System.Net.Requests": "4.0.11",
          "System.Net.Sockets": "4.1.0",
          "System.Reflection": "4.3.0",
          "System.Reflection.Extensions": "4.0.1",
          "System.Reflection.TypeExtensions": "4.4.0",
          "System.Runtime.Extensions": "4.3.0",
          "System.Runtime.InteropServices": "4.1.0",
          "System.Runtime.InteropServices.RuntimeInformation": "4.0.0",
          "System.Runtime.Serialization.Formatters": "4.3.0",
          "System.Text.RegularExpressions": "4.3.0",
          "System.Threading": "4.3.0",
          "System.Threading.Thread": "4.0.0",
          "System.Threading.Timer": "4.0.1",
          "System.Xml.ReaderWriter": "4.0.11",
          "System.Xml.XmlDocument": "4.0.1"
        },
        "runtime": {
          "lib/netstandard1.3/log4net.dll": {}
        }
      },
      "Microsoft.Build.Framework/15.6.85": {
        "dependencies": {
          "System.Collections": "4.3.0",
          "System.Diagnostics.Debug": "4.3.0",
          "System.Diagnostics.Process": "4.1.0",
          "System.Globalization": "4.3.0",
          "System.Linq": "4.3.0",
          "System.ObjectModel": "4.0.12",
          "System.Resources.ResourceManager": "4.3.0",
          "System.Runtime": "4.3.0",
          "System.Runtime.Extensions": "4.3.0",
          "System.Runtime.InteropServices": "4.1.0",
          "System.Threading": "4.3.0",
          "System.Threading.Tasks.Parallel": "4.0.1",
          "System.Threading.Thread": "4.0.0"
        },
        "runtime": {
          "lib/netstandard1.3/Microsoft.Build.Framework.dll": {}
        }
      },
      "Microsoft.NETCore.Targets/1.1.0": {},
      "Microsoft.SqlServer.Compact/4.0.8876.1": {
        "runtime": {
          "lib/net40/System.Data.SqlServerCe.dll": {}
        }
      },
      "Microsoft.Win32.Primitives/4.0.1": {
        "dependencies": {
          "Microsoft.NETCore.Targets": "1.1.0",
          "System.Runtime": "4.3.0"
        }
      },
      "Microsoft.Win32.Registry/4.4.0": {
        "dependencies": {
          "System.Security.AccessControl": "4.4.0",
          "System.Security.Principal.Windows": "4.4.1"
        },
        "runtimeTargets": {
          "runtime/unix/lib/_._": {
            "rid": "unix",
            "assetType": "runtime"
          },
          "runtime/win/lib/_._": {
            "rid": "win",
            "assetType": "runtime"
          }
        }
      },
      "MySql.Data/8.0.11": {
        "dependencies": {
          "Google.Protobuf": "3.5.1",
          "System.Configuration.ConfigurationManager": "4.4.1",
          "System.Security.Permissions": "4.4.1",
          "System.Text.Encoding.CodePages": "4.4.0"
        },
        "runtime": {
          "lib/netcoreapp2.0/MySql.Data.dll": {}
        }
      },
      "Newtonsoft.Json/11.0.2": {
        "runtime": {
          "lib/netstandard2.0/Newtonsoft.Json.dll": {}
        }
      },
      "NHibernate/5.1.1": {
        "dependencies": {
          "Antlr3.Runtime": "3.5.1",
          "Iesi.Collections": "4.0.4",
          "Remotion.Linq": "2.1.2",
          "Remotion.Linq.EagerFetching": "2.1.0",
          "System.Configuration.ConfigurationManager": "4.4.1",
          "System.Security.Permissions": "4.4.1",
          "System.ServiceModel.Primitives": "4.4.0"
        },
        "runtime": {
          "lib/netcoreapp2.0/NHibernate.dll": {}
        }
      },
      "NHibernate.JetDriver/2.0.0.1002": {
        "dependencies": {
          "NHibernate": "5.1.1",
          "log4net": "2.0.8"
        },
        "runtime": {
          "lib/net40/NHibernate.JetDriver.dll": {}
        }
      },
      "Npgsql/3.2.7": {
        "dependencies": {
          "System.Threading.Tasks.Extensions": "4.3.0"
        },
        "runtime": {
          "lib/netstandard2.0/Npgsql.dll": {}
        }
      },
      "Polly/5.9.0": {
        "runtime": {
          "lib/netstandard1.1/Polly.dll": {}
        }
      },
      "Remotion.Linq/2.1.2": {
        "dependencies": {
          "System.Collections": "4.3.0",
          "System.Diagnostics.Debug": "4.3.0",
          "System.Linq": "4.3.0",
          "System.Linq.Expressions": "4.1.0",
          "System.Linq.Queryable": "4.0.1",
          "System.ObjectModel": "4.0.12",
          "System.Reflection": "4.3.0",
          "System.Reflection.Extensions": "4.0.1",
          "System.Runtime": "4.3.0",
          "System.Runtime.Extensions": "4.3.0",
          "System.Threading": "4.3.0"
        },
        "runtime": {
          "lib/netstandard1.0/Remotion.Linq.dll": {}
        }
      },
      "Remotion.Linq.EagerFetching/2.1.0": {
        "dependencies": {
          "Remotion.Linq": "2.1.2",
          "System.Collections": "4.3.0",
          "System.Linq": "4.3.0",
          "System.Linq.Expressions": "4.1.0",
          "System.ObjectModel": "4.0.12",
          "System.Reflection": "4.3.0",
          "System.Runtime": "4.3.0"
        },
        "runtime": {
          "lib/netstandard1.0/Remotion.Linq.EagerFetching.dll": {}
        }
      },
      "runtime.native.System/4.0.0": {
        "dependencies": {
          "Microsoft.NETCore.Targets": "1.1.0"
        }
      },
      "runtime.native.System.Data.SqlClient.sni/4.4.0": {
        "dependencies": {
          "runtime.win-arm64.runtime.native.System.Data.SqlClient.sni": "4.4.0",
          "runtime.win-x64.runtime.native.System.Data.SqlClient.sni": "4.4.0",
          "runtime.win-x86.runtime.native.System.Data.SqlClient.sni": "4.4.0"
        }
      },
      "runtime.native.System.Net.Http/4.0.1": {
        "dependencies": {
          "Microsoft.NETCore.Targets": "1.1.0"
        }
      },
      "runtime.native.System.Security.Cryptography/4.0.0": {
        "dependencies": {
          "Microsoft.NETCore.Targets": "1.1.0"
        }
      },
      "runtime.win-arm64.runtime.native.System.Data.SqlClient.sni/4.4.0": {
        "runtimeTargets": {
          "runtimes/win-arm64/native/sni.dll": {
            "rid": "win-arm64",
            "assetType": "native"
          }
        }
      },
      "runtime.win-x64.runtime.native.System.Data.SqlClient.sni/4.4.0": {
        "runtimeTargets": {
          "runtimes/win-x64/native/sni.dll": {
            "rid": "win-x64",
            "assetType": "native"
          }
        }
      },
      "runtime.win-x86.runtime.native.System.Data.SqlClient.sni/4.4.0": {
        "runtimeTargets": {
          "runtimes/win-x86/native/sni.dll": {
            "rid": "win-x86",
            "assetType": "native"
          }
        }
      },
      "StructureMap/4.6.1": {
        "dependencies": {
          "System.Collections.Concurrent": "4.3.0",
          "System.Reflection.Emit.Lightweight": "4.3.0",
          "System.Reflection.TypeExtensions": "4.4.0",
          "System.Runtime.Loader": "4.3.0"
        },
        "runtime": {
          "lib/netstandard2.0/StructureMap.dll": {}
        }
      },
      "System.AppContext/4.1.0": {
        "dependencies": {
          "System.Runtime": "4.3.0"
        }
      },
      "System.Collections/4.3.0": {
        "dependencies": {
          "Microsoft.NETCore.Targets": "1.1.0",
          "System.Runtime": "4.3.0"
        }
      },
      "System.Collections.Concurrent/4.3.0": {
        "dependencies": {
          "System.Collections": "4.3.0",
          "System.Diagnostics.Debug": "4.3.0",
          "System.Diagnostics.Tracing": "4.3.0",
          "System.Globalization": "4.3.0",
          "System.Reflection": "4.3.0",
          "System.Resources.ResourceManager": "4.3.0",
          "System.Runtime": "4.3.0",
          "System.Runtime.Extensions": "4.3.0",
          "System.Threading": "4.3.0",
          "System.Threading.Tasks": "4.3.0"
        }
      },
      "System.Collections.Immutable/1.2.0": {
        "dependencies": {
          "System.Collections": "4.3.0",
          "System.Diagnostics.Debug": "4.3.0",
          "System.Globalization": "4.3.0",
          "System.Linq": "4.3.0",
          "System.Resources.ResourceManager": "4.3.0",
          "System.Runtime": "4.3.0",
          "System.Runtime.Extensions": "4.3.0",
          "System.Threading": "4.3.0"
        }
      },
      "System.Collections.NonGeneric/4.0.1": {
        "dependencies": {
          "System.Diagnostics.Debug": "4.3.0",
          "System.Globalization": "4.3.0",
          "System.Resources.ResourceManager": "4.3.0",
          "System.Runtime": "4.3.0",
          "System.Runtime.Extensions": "4.3.0",
          "System.Threading": "4.3.0"
        }
      },
      "System.Configuration.ConfigurationManager/4.4.1": {
        "dependencies": {
          "System.Security.Cryptography.ProtectedData": "4.4.0"
        },
        "runtime": {
          "lib/netstandard2.0/System.Configuration.ConfigurationManager.dll": {}
        }
      },
      "System.Console/4.0.0": {
        "dependencies": {
          "Microsoft.NETCore.Targets": "1.1.0",
          "System.IO": "4.3.0",
          "System.Runtime": "4.3.0",
          "System.Text.Encoding": "4.3.0"
        }
      },
      "System.Data.Common/4.3.0": {
        "dependencies": {
          "System.Collections": "4.3.0",
          "System.Globalization": "4.3.0",
          "System.IO": "4.3.0",
          "System.Resources.ResourceManager": "4.3.0",
          "System.Runtime": "4.3.0",
          "System.Runtime.Extensions": "4.3.0",
          "System.Text.RegularExpressions": "4.3.0",
          "System.Threading.Tasks": "4.3.0"
        }
      },
      "System.Data.SqlClient/4.4.3": {
        "dependencies": {
          "Microsoft.Win32.Registry": "4.4.0",
          "System.Security.Principal.Windows": "4.4.1",
          "System.Text.Encoding.CodePages": "4.4.0",
          "runtime.native.System.Data.SqlClient.sni": "4.4.0"
        },
        "runtime": {
          "lib/netstandard2.0/System.Data.SqlClient.dll": {}
        },
        "runtimeTargets": {
          "runtimes/unix/lib/netstandard2.0/System.Data.SqlClient.dll": {
            "rid": "unix",
            "assetType": "runtime"
          },
          "runtimes/win/lib/netstandard2.0/System.Data.SqlClient.dll": {
            "rid": "win",
            "assetType": "runtime"
          }
        }
      },
      "System.Data.SQLite.Core/1.0.108": {
        "runtime": {
          "lib/net46/System.Data.SQLite.dll": {}
        }
      },
      "System.Diagnostics.Debug/4.3.0": {
        "dependencies": {
          "Microsoft.NETCore.Targets": "1.1.0",
          "System.Runtime": "4.3.0"
        }
      },
      "System.Diagnostics.DiagnosticSource/4.0.0": {
        "dependencies": {
          "System.Collections": "4.3.0",
          "System.Diagnostics.Tracing": "4.3.0",
          "System.Reflection": "4.3.0",
          "System.Runtime": "4.3.0",
          "System.Threading": "4.3.0"
        }
      },
      "System.Diagnostics.Process/4.1.0": {
        "dependencies": {
          "Microsoft.Win32.Primitives": "4.0.1",
          "Microsoft.Win32.Registry": "4.4.0",
          "System.Collections": "4.3.0",
          "System.Diagnostics.Debug": "4.3.0",
          "System.Globalization": "4.3.0",
          "System.IO": "4.3.0",
          "System.IO.FileSystem": "4.0.1",
          "System.IO.FileSystem.Primitives": "4.0.1",
          "System.Resources.ResourceManager": "4.3.0",
          "System.Runtime": "4.3.0",
          "System.Runtime.Extensions": "4.3.0",
          "System.Runtime.Handles": "4.0.1",
          "System.Runtime.InteropServices": "4.1.0",
          "System.Text.Encoding": "4.3.0",
          "System.Text.Encoding.Extensions": "4.0.11",
          "System.Threading": "4.3.0",
          "System.Threading.Tasks": "4.3.0",
          "System.Threading.Thread": "4.0.0",
          "System.Threading.ThreadPool": "4.0.10",
          "runtime.native.System": "4.0.0"
        },
        "runtimeTargets": {
          "runtime/linux/lib/_._": {
            "rid": "linux",
            "assetType": "runtime"
          },
          "runtime/osx/lib/_._": {
            "rid": "osx",
            "assetType": "runtime"
          },
          "runtime/win/lib/_._": {
            "rid": "win",
            "assetType": "runtime"
          }
        }
      },
      "System.Diagnostics.StackTrace/4.0.1": {
        "dependencies": {
          "System.Collections.Immutable": "1.2.0",
          "System.IO.FileSystem": "4.0.1",
          "System.Reflection": "4.3.0",
          "System.Reflection.Metadata": "1.3.0",
          "System.Runtime": "4.3.0",
          "System.Runtime.Extensions": "4.3.0"
        }
      },
      "System.Diagnostics.TraceSource/4.0.0": {
        "dependencies": {
          "System.Collections": "4.3.0",
          "System.Diagnostics.Debug": "4.3.0",
          "System.Globalization": "4.3.0",
          "System.Resources.ResourceManager": "4.3.0",
          "System.Runtime": "4.3.0",
          "System.Runtime.Extensions": "4.3.0",
          "System.Threading": "4.3.0",
          "runtime.native.System": "4.0.0"
        },
        "runtimeTargets": {
          "runtime/unix/lib/_._": {
            "rid": "unix",
            "assetType": "runtime"
          },
          "runtime/win/lib/_._": {
            "rid": "win",
            "assetType": "runtime"
          }
        }
      },
      "System.Diagnostics.Tracing/4.3.0": {
        "dependencies": {
          "Microsoft.NETCore.Targets": "1.1.0",
          "System.Runtime": "4.3.0"
        }
      },
      "System.Globalization/4.3.0": {
        "dependencies": {
          "Microsoft.NETCore.Targets": "1.1.0",
          "System.Runtime": "4.3.0"
        }
      },
      "System.Globalization.Calendars/4.0.1": {
        "dependencies": {
          "Microsoft.NETCore.Targets": "1.1.0",
          "System.Globalization": "4.3.0",
          "System.Runtime": "4.3.0"
        }
      },
      "System.Globalization.Extensions/4.0.1": {
        "dependencies": {
          "System.Globalization": "4.3.0",
          "System.Resources.ResourceManager": "4.3.0",
          "System.Runtime": "4.3.0",
          "System.Runtime.Extensions": "4.3.0",
          "System.Runtime.InteropServices": "4.1.0"
        },
        "runtimeTargets": {
          "runtime/unix/lib/_._": {
            "rid": "unix",
            "assetType": "runtime"
          },
          "runtime/win/lib/_._": {
            "rid": "win",
            "assetType": "runtime"
          }
        }
      },
      "System.IO/4.3.0": {
        "dependencies": {
          "Microsoft.NETCore.Targets": "1.1.0",
          "System.Runtime": "4.3.0",
          "System.Text.Encoding": "4.3.0",
          "System.Threading.Tasks": "4.3.0"
        }
      },
      "System.IO.FileSystem/4.0.1": {
        "dependencies": {
          "Microsoft.NETCore.Targets": "1.1.0",
          "System.IO": "4.3.0",
          "System.IO.FileSystem.Primitives": "4.0.1",
          "System.Runtime": "4.3.0",
          "System.Runtime.Handles": "4.0.1",
          "System.Text.Encoding": "4.3.0",
          "System.Threading.Tasks": "4.3.0"
        }
      },
      "System.IO.FileSystem.Primitives/4.0.1": {
        "dependencies": {
          "System.Runtime": "4.3.0"
        }
      },
      "System.IO.FileSystem.Watcher/4.0.0": {
        "dependencies": {
          "Microsoft.Win32.Primitives": "4.0.1",
          "System.Collections": "4.3.0",
          "System.IO.FileSystem": "4.0.1",
          "System.IO.FileSystem.Primitives": "4.0.1",
          "System.Resources.ResourceManager": "4.3.0",
          "System.Runtime": "4.3.0",
          "System.Runtime.Extensions": "4.3.0",
          "System.Runtime.Handles": "4.0.1",
          "System.Runtime.InteropServices": "4.1.0",
          "System.Text.Encoding": "4.3.0",
          "System.Threading": "4.3.0",
          "System.Threading.Overlapped": "4.0.1",
          "System.Threading.Tasks": "4.3.0",
          "System.Threading.Thread": "4.0.0",
          "runtime.native.System": "4.0.0"
        },
        "runtimeTargets": {
          "runtime/linux/lib/_._": {
            "rid": "linux",
            "assetType": "runtime"
          },
          "runtime/osx/lib/_._": {
            "rid": "osx",
            "assetType": "runtime"
          },
          "runtime/win/lib/_._": {
            "rid": "win",
            "assetType": "runtime"
          }
        }
      },
      "System.Linq/4.3.0": {
        "dependencies": {
          "System.Collections": "4.3.0",
          "System.Diagnostics.Debug": "4.3.0",
          "System.Resources.ResourceManager": "4.3.0",
          "System.Runtime": "4.3.0",
          "System.Runtime.Extensions": "4.3.0"
        }
      },
      "System.Linq.Expressions/4.1.0": {
        "dependencies": {
          "System.Collections": "4.3.0",
          "System.Diagnostics.Debug": "4.3.0",
          "System.Globalization": "4.3.0",
          "System.IO": "4.3.0",
          "System.Linq": "4.3.0",
          "System.ObjectModel": "4.0.12",
          "System.Reflection": "4.3.0",
          "System.Reflection.Emit": "4.0.1",
          "System.Reflection.Emit.ILGeneration": "4.3.0",
          "System.Reflection.Emit.Lightweight": "4.3.0",
          "System.Reflection.Extensions": "4.0.1",
          "System.Reflection.Primitives": "4.3.0",
          "System.Reflection.TypeExtensions": "4.4.0",
          "System.Resources.ResourceManager": "4.3.0",
          "System.Runtime": "4.3.0",
          "System.Runtime.Extensions": "4.3.0",
          "System.Threading": "4.3.0"
        }
      },
      "System.Linq.Queryable/4.0.1": {
        "dependencies": {
          "System.Collections": "4.3.0",
          "System.Diagnostics.Debug": "4.3.0",
          "System.Linq": "4.3.0",
          "System.Linq.Expressions": "4.1.0",
          "System.Reflection": "4.3.0",
          "System.Reflection.Extensions": "4.0.1",
          "System.Resources.ResourceManager": "4.3.0",
          "System.Runtime": "4.3.0"
        }
      },
      "System.Net.Http/4.1.0": {
        "dependencies": {
          "System.Collections": "4.3.0",
          "System.Diagnostics.Debug": "4.3.0",
          "System.Diagnostics.DiagnosticSource": "4.0.0",
          "System.Diagnostics.Tracing": "4.3.0",
          "System.Globalization": "4.3.0",
          "System.Globalization.Extensions": "4.0.1",
          "System.IO": "4.3.0",
          "System.IO.FileSystem": "4.0.1",
          "System.Net.Primitives": "4.0.11",
          "System.Resources.ResourceManager": "4.3.0",
          "System.Runtime": "4.3.0",
          "System.Runtime.Extensions": "4.3.0",
          "System.Runtime.Handles": "4.0.1",
          "System.Runtime.InteropServices": "4.1.0",
          "System.Security.Cryptography.Algorithms": "4.2.0",
          "System.Security.Cryptography.Encoding": "4.0.0",
          "System.Security.Cryptography.OpenSsl": "4.0.0",
          "System.Security.Cryptography.Primitives": "4.0.0",
          "System.Security.Cryptography.X509Certificates": "4.1.0",
          "System.Text.Encoding": "4.3.0",
          "System.Threading": "4.3.0",
          "System.Threading.Tasks": "4.3.0",
          "runtime.native.System": "4.0.0",
          "runtime.native.System.Net.Http": "4.0.1",
          "runtime.native.System.Security.Cryptography": "4.0.0"
        },
        "runtimeTargets": {
          "runtime/unix/lib/_._": {
            "rid": "unix",
            "assetType": "runtime"
          },
          "runtime/win/lib/_._": {
            "rid": "win",
            "assetType": "runtime"
          }
        }
      },
      "System.Net.Http.WinHttpHandler/4.4.0": {
        "runtime": {
          "lib/netstandard2.0/System.Net.Http.WinHttpHandler.dll": {}
        },
        "runtimeTargets": {
          "runtimes/win/lib/netstandard2.0/System.Net.Http.WinHttpHandler.dll": {
            "rid": "win",
            "assetType": "runtime"
          }
        }
      },
      "System.Net.NameResolution/4.0.0": {
        "dependencies": {
          "System.Collections": "4.3.0",
          "System.Diagnostics.Tracing": "4.3.0",
          "System.Globalization": "4.3.0",
          "System.Net.Primitives": "4.0.11",
          "System.Resources.ResourceManager": "4.3.0",
          "System.Runtime": "4.3.0",
          "System.Runtime.Extensions": "4.3.0",
          "System.Runtime.Handles": "4.0.1",
          "System.Runtime.InteropServices": "4.1.0",
          "System.Security.Principal.Windows": "4.4.1",
          "System.Threading": "4.3.0",
          "System.Threading.Tasks": "4.3.0",
          "runtime.native.System": "4.0.0"
        },
        "runtimeTargets": {
          "runtime/unix/lib/_._": {
            "rid": "unix",
            "assetType": "runtime"
          },
          "runtime/win/lib/_._": {
            "rid": "win",
            "assetType": "runtime"
          }
        }
      },
      "System.Net.Primitives/4.0.11": {
        "dependencies": {
          "Microsoft.NETCore.Targets": "1.1.0",
          "System.Runtime": "4.3.0",
          "System.Runtime.Handles": "4.0.1"
        }
      },
      "System.Net.Requests/4.0.11": {
        "dependencies": {
          "System.Collections": "4.3.0",
          "System.Diagnostics.Debug": "4.3.0",
          "System.Diagnostics.Tracing": "4.3.0",
          "System.Globalization": "4.3.0",
          "System.IO": "4.3.0",
          "System.Net.Http": "4.1.0",
          "System.Net.Primitives": "4.0.11",
          "System.Net.WebHeaderCollection": "4.0.1",
          "System.Resources.ResourceManager": "4.3.0",
          "System.Runtime": "4.3.0",
          "System.Threading": "4.3.0",
          "System.Threading.Tasks": "4.3.0"
        },
        "runtimeTargets": {
          "runtime/unix/lib/_._": {
            "rid": "unix",
            "assetType": "runtime"
          },
          "runtime/win/lib/_._": {
            "rid": "win",
            "assetType": "runtime"
          }
        }
      },
      "System.Net.Sockets/4.1.0": {
        "dependencies": {
          "Microsoft.NETCore.Targets": "1.1.0",
          "System.IO": "4.3.0",
          "System.Net.Primitives": "4.0.11",
          "System.Runtime": "4.3.0",
          "System.Threading.Tasks": "4.3.0"
        }
      },
      "System.Net.WebHeaderCollection/4.0.1": {
        "dependencies": {
          "System.Collections": "4.3.0",
          "System.Resources.ResourceManager": "4.3.0",
          "System.Runtime": "4.3.0",
          "System.Runtime.Extensions": "4.3.0"
        }
      },
      "System.ObjectModel/4.0.12": {
        "dependencies": {
          "System.Collections": "4.3.0",
          "System.Diagnostics.Debug": "4.3.0",
          "System.Resources.ResourceManager": "4.3.0",
          "System.Runtime": "4.3.0",
          "System.Threading": "4.3.0"
        }
      },
      "System.Private.ServiceModel/4.4.0": {
        "dependencies": {
          "System.Net.Http.WinHttpHandler": "4.4.0",
          "System.Reflection.DispatchProxy": "4.4.0",
          "System.Security.Principal.Windows": "4.4.1"
        },
        "runtimeTargets": {
          "runtimes/unix/lib/netstandard2.0/System.Private.ServiceModel.dll": {
            "rid": "unix",
            "assetType": "runtime"
          },
          "runtimes/win7/lib/netstandard2.0/System.Private.ServiceModel.dll": {
            "rid": "win7",
            "assetType": "runtime"
          }
        }
      },
      "System.Reflection/4.3.0": {
        "dependencies": {
          "Microsoft.NETCore.Targets": "1.1.0",
          "System.IO": "4.3.0",
          "System.Reflection.Primitives": "4.3.0",
          "System.Runtime": "4.3.0"
        }
      },
      "System.Reflection.DispatchProxy/4.4.0": {},
      "System.Reflection.Emit/4.0.1": {
        "dependencies": {
          "System.IO": "4.3.0",
          "System.Reflection": "4.3.0",
          "System.Reflection.Emit.ILGeneration": "4.3.0",
          "System.Reflection.Primitives": "4.3.0",
          "System.Runtime": "4.3.0"
        }
      },
      "System.Reflection.Emit.ILGeneration/4.3.0": {
        "dependencies": {
          "System.Reflection": "4.3.0",
          "System.Reflection.Primitives": "4.3.0",
          "System.Runtime": "4.3.0"
        }
      },
      "System.Reflection.Emit.Lightweight/4.3.0": {
        "dependencies": {
          "System.Reflection": "4.3.0",
          "System.Reflection.Emit.ILGeneration": "4.3.0",
          "System.Reflection.Primitives": "4.3.0",
          "System.Runtime": "4.3.0"
        }
      },
      "System.Reflection.Extensions/4.0.1": {
        "dependencies": {
          "Microsoft.NETCore.Targets": "1.1.0",
          "System.Reflection": "4.3.0",
          "System.Runtime": "4.3.0"
        }
      },
      "System.Reflection.Metadata/1.3.0": {
        "dependencies": {
          "System.Collections": "4.3.0",
          "System.Collections.Immutable": "1.2.0",
          "System.Diagnostics.Debug": "4.3.0",
          "System.IO": "4.3.0",
          "System.Linq": "4.3.0",
          "System.Reflection": "4.3.0",
          "System.Reflection.Extensions": "4.0.1",
          "System.Reflection.Primitives": "4.3.0",
          "System.Resources.ResourceManager": "4.3.0",
          "System.Runtime": "4.3.0",
          "System.Runtime.Extensions": "4.3.0",
          "System.Runtime.InteropServices": "4.1.0",
          "System.Text.Encoding": "4.3.0",
          "System.Text.Encoding.Extensions": "4.0.11",
          "System.Threading": "4.3.0"
        }
      },
      "System.Reflection.Primitives/4.3.0": {
        "dependencies": {
          "Microsoft.NETCore.Targets": "1.1.0",
          "System.Runtime": "4.3.0"
        }
      },
      "System.Reflection.TypeExtensions/4.4.0": {},
      "System.Resources.ResourceManager/4.3.0": {
        "dependencies": {
          "Microsoft.NETCore.Targets": "1.1.0",
          "System.Globalization": "4.3.0",
          "System.Reflection": "4.3.0",
          "System.Runtime": "4.3.0"
        }
      },
      "System.Runtime/4.3.0": {
        "dependencies": {
          "Microsoft.NETCore.Targets": "1.1.0"
        }
      },
      "System.Runtime.Extensions/4.3.0": {
        "dependencies": {
          "Microsoft.NETCore.Targets": "1.1.0",
          "System.Runtime": "4.3.0"
        }
      },
      "System.Runtime.Handles/4.0.1": {
        "dependencies": {
          "Microsoft.NETCore.Targets": "1.1.0",
          "System.Runtime": "4.3.0"
        }
      },
      "System.Runtime.InteropServices/4.1.0": {
        "dependencies": {
          "Microsoft.NETCore.Targets": "1.1.0",
          "System.Reflection": "4.3.0",
          "System.Reflection.Primitives": "4.3.0",
          "System.Runtime": "4.3.0",
          "System.Runtime.Handles": "4.0.1"
        }
      },
      "System.Runtime.InteropServices.RuntimeInformation/4.0.0": {
        "dependencies": {
          "System.Reflection": "4.3.0",
          "System.Resources.ResourceManager": "4.3.0",
          "System.Runtime": "4.3.0",
          "System.Runtime.InteropServices": "4.1.0",
          "System.Threading": "4.3.0",
          "runtime.native.System": "4.0.0"
        },
        "runtimeTargets": {
          "runtime/unix/lib/_._": {
            "rid": "unix",
            "assetType": "runtime"
          },
          "runtime/win/lib/_._": {
            "rid": "win",
            "assetType": "runtime"
          }
        }
      },
      "System.Runtime.Loader/4.3.0": {
        "dependencies": {
          "System.IO": "4.3.0",
          "System.Reflection": "4.3.0",
          "System.Runtime": "4.3.0"
        }
      },
      "System.Runtime.Numerics/4.0.1": {
        "dependencies": {
          "System.Globalization": "4.3.0",
          "System.Resources.ResourceManager": "4.3.0",
          "System.Runtime": "4.3.0",
          "System.Runtime.Extensions": "4.3.0"
        }
      },
      "System.Runtime.Serialization.Formatters/4.3.0": {
        "dependencies": {
          "System.Collections": "4.3.0",
          "System.Reflection": "4.3.0",
          "System.Resources.ResourceManager": "4.3.0",
          "System.Runtime": "4.3.0",
          "System.Runtime.Serialization.Primitives": "4.3.0"
        }
      },
      "System.Runtime.Serialization.Primitives/4.3.0": {
        "dependencies": {
          "System.Resources.ResourceManager": "4.3.0",
          "System.Runtime": "4.3.0"
        }
      },
      "System.Security.AccessControl/4.4.0": {
        "dependencies": {
          "System.Security.Principal.Windows": "4.4.1"
        },
        "runtimeTargets": {
          "runtime/unix/lib/_._": {
            "rid": "unix",
            "assetType": "runtime"
          },
          "runtime/win/lib/_._": {
            "rid": "win",
            "assetType": "runtime"
          }
        }
      },
      "System.Security.Cryptography.Algorithms/4.2.0": {
        "dependencies": {
          "System.Collections": "4.3.0",
          "System.IO": "4.3.0",
          "System.Resources.ResourceManager": "4.3.0",
          "System.Runtime": "4.3.0",
          "System.Runtime.Extensions": "4.3.0",
          "System.Runtime.Handles": "4.0.1",
          "System.Runtime.InteropServices": "4.1.0",
          "System.Runtime.Numerics": "4.0.1",
          "System.Security.Cryptography.Encoding": "4.0.0",
          "System.Security.Cryptography.Primitives": "4.0.0",
          "System.Text.Encoding": "4.3.0",
          "runtime.native.System.Security.Cryptography": "4.0.0"
        },
        "runtimeTargets": {
          "runtime/unix/lib/_._": {
            "rid": "unix",
            "assetType": "runtime"
          },
          "runtime/win/lib/_._": {
            "rid": "win",
            "assetType": "runtime"
          }
        }
      },
      "System.Security.Cryptography.Cng/4.2.0": {
        "dependencies": {
          "System.IO": "4.3.0",
          "System.Resources.ResourceManager": "4.3.0",
          "System.Runtime": "4.3.0",
          "System.Runtime.Extensions": "4.3.0",
          "System.Runtime.Handles": "4.0.1",
          "System.Runtime.InteropServices": "4.1.0",
          "System.Security.Cryptography.Algorithms": "4.2.0",
          "System.Security.Cryptography.Encoding": "4.0.0",
          "System.Security.Cryptography.Primitives": "4.0.0",
          "System.Text.Encoding": "4.3.0"
        },
        "runtimeTargets": {
          "runtime/unix/lib/_._": {
            "rid": "unix",
            "assetType": "runtime"
          },
          "runtime/win/lib/_._": {
            "rid": "win",
            "assetType": "runtime"
          }
        }
      },
      "System.Security.Cryptography.Csp/4.0.0": {
        "dependencies": {
          "System.IO": "4.3.0",
          "System.Reflection": "4.3.0",
          "System.Resources.ResourceManager": "4.3.0",
          "System.Runtime": "4.3.0",
          "System.Runtime.Extensions": "4.3.0",
          "System.Runtime.Handles": "4.0.1",
          "System.Runtime.InteropServices": "4.1.0",
          "System.Security.Cryptography.Algorithms": "4.2.0",
          "System.Security.Cryptography.Encoding": "4.0.0",
          "System.Security.Cryptography.Primitives": "4.0.0",
          "System.Text.Encoding": "4.3.0",
          "System.Threading": "4.3.0"
        },
        "runtimeTargets": {
          "runtime/unix/lib/_._": {
            "rid": "unix",
            "assetType": "runtime"
          },
          "runtime/win/lib/_._": {
            "rid": "win",
            "assetType": "runtime"
          }
        }
      },
      "System.Security.Cryptography.Encoding/4.0.0": {
        "dependencies": {
          "System.Collections": "4.3.0",
          "System.Collections.Concurrent": "4.3.0",
          "System.Linq": "4.3.0",
          "System.Resources.ResourceManager": "4.3.0",
          "System.Runtime": "4.3.0",
          "System.Runtime.Extensions": "4.3.0",
          "System.Runtime.Handles": "4.0.1",
          "System.Runtime.InteropServices": "4.1.0",
          "System.Security.Cryptography.Primitives": "4.0.0",
          "System.Text.Encoding": "4.3.0",
          "runtime.native.System.Security.Cryptography": "4.0.0"
        },
        "runtimeTargets": {
          "runtime/unix/lib/_._": {
            "rid": "unix",
            "assetType": "runtime"
          },
          "runtime/win/lib/_._": {
            "rid": "win",
            "assetType": "runtime"
          }
        }
      },
      "System.Security.Cryptography.OpenSsl/4.0.0": {
        "dependencies": {
          "System.Collections": "4.3.0",
          "System.IO": "4.3.0",
          "System.Resources.ResourceManager": "4.3.0",
          "System.Runtime": "4.3.0",
          "System.Runtime.Extensions": "4.3.0",
          "System.Runtime.Handles": "4.0.1",
          "System.Runtime.InteropServices": "4.1.0",
          "System.Runtime.Numerics": "4.0.1",
          "System.Security.Cryptography.Algorithms": "4.2.0",
          "System.Security.Cryptography.Encoding": "4.0.0",
          "System.Security.Cryptography.Primitives": "4.0.0",
          "System.Text.Encoding": "4.3.0",
          "runtime.native.System.Security.Cryptography": "4.0.0"
        },
        "runtimeTargets": {
          "runtime/unix/lib/_._": {
            "rid": "unix",
            "assetType": "runtime"
          }
        }
      },
      "System.Security.Cryptography.Primitives/4.0.0": {
        "dependencies": {
          "System.Diagnostics.Debug": "4.3.0",
          "System.Globalization": "4.3.0",
          "System.IO": "4.3.0",
          "System.Resources.ResourceManager": "4.3.0",
          "System.Runtime": "4.3.0",
          "System.Threading": "4.3.0",
          "System.Threading.Tasks": "4.3.0"
        }
      },
      "System.Security.Cryptography.ProtectedData/4.4.0": {
        "runtime": {
          "lib/netstandard2.0/System.Security.Cryptography.ProtectedData.dll": {}
        },
        "runtimeTargets": {
          "runtimes/win/lib/netstandard2.0/System.Security.Cryptography.ProtectedData.dll": {
            "rid": "win",
            "assetType": "runtime"
          }
        }
      },
      "System.Security.Cryptography.X509Certificates/4.1.0": {
        "dependencies": {
          "System.Collections": "4.3.0",
          "System.Diagnostics.Debug": "4.3.0",
          "System.Globalization": "4.3.0",
          "System.Globalization.Calendars": "4.0.1",
          "System.IO": "4.3.0",
          "System.IO.FileSystem": "4.0.1",
          "System.IO.FileSystem.Primitives": "4.0.1",
          "System.Resources.ResourceManager": "4.3.0",
          "System.Runtime": "4.3.0",
          "System.Runtime.Extensions": "4.3.0",
          "System.Runtime.Handles": "4.0.1",
          "System.Runtime.InteropServices": "4.1.0",
          "System.Runtime.Numerics": "4.0.1",
          "System.Security.Cryptography.Algorithms": "4.2.0",
          "System.Security.Cryptography.Cng": "4.2.0",
          "System.Security.Cryptography.Csp": "4.0.0",
          "System.Security.Cryptography.Encoding": "4.0.0",
          "System.Security.Cryptography.OpenSsl": "4.0.0",
          "System.Security.Cryptography.Primitives": "4.0.0",
          "System.Text.Encoding": "4.3.0",
          "System.Threading": "4.3.0",
          "runtime.native.System": "4.0.0",
          "runtime.native.System.Net.Http": "4.0.1",
          "runtime.native.System.Security.Cryptography": "4.0.0"
        },
        "runtimeTargets": {
          "runtime/unix/lib/_._": {
            "rid": "unix",
            "assetType": "runtime"
          },
          "runtime/win/lib/_._": {
            "rid": "win",
            "assetType": "runtime"
          }
        }
      },
      "System.Security.Permissions/4.4.1": {
        "dependencies": {
          "System.Security.AccessControl": "4.4.0"
        },
        "runtime": {
          "lib/netstandard2.0/System.Security.Permissions.dll": {}
        }
      },
      "System.Security.Principal.Windows/4.4.1": {
        "runtime": {
          "lib/netstandard2.0/System.Security.Principal.Windows.dll": {}
        },
        "runtimeTargets": {
          "runtimes/unix/lib/netcoreapp2.0/System.Security.Principal.Windows.dll": {
            "rid": "unix",
            "assetType": "runtime"
          },
          "runtimes/win/lib/netcoreapp2.0/System.Security.Principal.Windows.dll": {
            "rid": "win",
            "assetType": "runtime"
          }
        }
      },
      "System.ServiceModel.Primitives/4.4.0": {
        "dependencies": {
          "System.Private.ServiceModel": "4.4.0"
        },
        "runtime": {
          "lib/netstandard2.0/System.ServiceModel.Primitives.dll": {}
        }
      },
      "System.Text.Encoding/4.3.0": {
        "dependencies": {
          "Microsoft.NETCore.Targets": "1.1.0",
          "System.Runtime": "4.3.0"
        }
      },
      "System.Text.Encoding.CodePages/4.4.0": {
        "runtime": {
          "lib/netstandard2.0/System.Text.Encoding.CodePages.dll": {}
        },
        "runtimeTargets": {
          "runtimes/win/lib/netcoreapp2.0/System.Text.Encoding.CodePages.dll": {
            "rid": "win",
            "assetType": "runtime"
          }
        }
      },
      "System.Text.Encoding.Extensions/4.0.11": {
        "dependencies": {
          "Microsoft.NETCore.Targets": "1.1.0",
          "System.Runtime": "4.3.0",
          "System.Text.Encoding": "4.3.0"
        }
      },
      "System.Text.RegularExpressions/4.3.0": {
        "dependencies": {
          "System.Runtime": "4.3.0"
        }
      },
      "System.Threading/4.3.0": {
        "dependencies": {
          "System.Runtime": "4.3.0",
          "System.Threading.Tasks": "4.3.0"
        }
      },
      "System.Threading.Overlapped/4.0.1": {
        "dependencies": {
          "System.Resources.ResourceManager": "4.3.0",
          "System.Runtime": "4.3.0",
          "System.Runtime.Handles": "4.0.1"
        },
        "runtimeTargets": {
          "runtime/unix/lib/_._": {
            "rid": "unix",
            "assetType": "runtime"
          },
          "runtime/win/lib/_._": {
            "rid": "win",
            "assetType": "runtime"
          }
        }
      },
      "System.Threading.Tasks/4.3.0": {
        "dependencies": {
          "Microsoft.NETCore.Targets": "1.1.0",
          "System.Runtime": "4.3.0"
        }
      },
      "System.Threading.Tasks.Extensions/4.3.0": {
        "dependencies": {
          "System.Collections": "4.3.0",
          "System.Runtime": "4.3.0",
          "System.Threading.Tasks": "4.3.0"
        }
      },
      "System.Threading.Tasks.Parallel/4.0.1": {
        "dependencies": {
          "System.Collections.Concurrent": "4.3.0",
          "System.Diagnostics.Debug": "4.3.0",
          "System.Diagnostics.Tracing": "4.3.0",
          "System.Resources.ResourceManager": "4.3.0",
          "System.Runtime": "4.3.0",
          "System.Runtime.Extensions": "4.3.0",
          "System.Threading": "4.3.0",
          "System.Threading.Tasks": "4.3.0"
        }
      },
      "System.Threading.Thread/4.0.0": {
        "dependencies": {
          "System.Runtime": "4.3.0"
        }
      },
      "System.Threading.ThreadPool/4.0.10": {
        "dependencies": {
          "System.Runtime": "4.3.0",
          "System.Runtime.Handles": "4.0.1"
        }
      },
      "System.Threading.Timer/4.0.1": {
        "dependencies": {
          "Microsoft.NETCore.Targets": "1.1.0",
          "System.Runtime": "4.3.0"
        }
      },
      "System.Xml.ReaderWriter/4.0.11": {
        "dependencies": {
          "System.Collections": "4.3.0",
          "System.Diagnostics.Debug": "4.3.0",
          "System.Globalization": "4.3.0",
          "System.IO": "4.3.0",
          "System.IO.FileSystem": "4.0.1",
          "System.IO.FileSystem.Primitives": "4.0.1",
          "System.Resources.ResourceManager": "4.3.0",
          "System.Runtime": "4.3.0",
          "System.Runtime.Extensions": "4.3.0",
          "System.Runtime.InteropServices": "4.1.0",
          "System.Text.Encoding": "4.3.0",
          "System.Text.Encoding.Extensions": "4.0.11",
          "System.Text.RegularExpressions": "4.3.0",
          "System.Threading.Tasks": "4.3.0",
          "System.Threading.Tasks.Extensions": "4.3.0"
        }
      },
      "System.Xml.XmlDocument/4.0.1": {
        "dependencies": {
          "System.Collections": "4.3.0",
          "System.Diagnostics.Debug": "4.3.0",
          "System.Globalization": "4.3.0",
          "System.IO": "4.3.0",
          "System.Resources.ResourceManager": "4.3.0",
          "System.Runtime": "4.3.0",
          "System.Runtime.Extensions": "4.3.0",
          "System.Text.Encoding": "4.3.0",
          "System.Threading": "4.3.0",
          "System.Xml.ReaderWriter": "4.0.11"
        }
      },
      "roundhouse/0.8.9-alpha": {
        "dependencies": {
          "FluentNHibernate": "2.1.2",
          "Iesi.Collections": "4.0.4",
          "Microsoft.Build.Framework": "15.6.85",
          "NHibernate": "5.1.1",
          "Newtonsoft.Json": "11.0.2",
          "Polly": "5.9.0",
          "StructureMap": "4.6.1",
          "System.Data.Common": "4.3.0",
          "System.Data.SqlClient": "4.4.3",
          "System.Security.Principal.Windows": "4.4.1",
          "log4net": "2.0.8"
        },
        "runtime": {
          "roundhouse.dll": {}
        }
      },
      "roundhouse.databases.mysql/1.0.0": {
        "dependencies": {
          "FluentNHibernate": "2.1.2",
          "Iesi.Collections": "4.0.4",
          "MySql.Data": "8.0.11",
          "NHibernate": "5.1.1",
          "System.Configuration.ConfigurationManager": "4.4.1",
          "roundhouse": "0.8.9-alpha"
        },
        "runtime": {
          "roundhouse.databases.mysql.dll": {}
        }
      },
      "roundhouse.databases.postgresql/1.0.0": {
        "dependencies": {
          "FluentNHibernate": "2.1.2",
          "Iesi.Collections": "4.0.4",
          "NHibernate": "5.1.1",
          "Npgsql": "3.2.7",
          "System.Linq": "4.3.0",
          "roundhouse": "0.8.9-alpha"
        },
        "runtime": {
          "roundhouse.databases.postgresql.dll": {}
        }
      },
      "roundhouse.databases.sqlite/1.0.0": {
        "dependencies": {
          "EntityFramework": "6.2.0",
          "FluentNHibernate": "2.1.2",
          "Iesi.Collections": "4.0.4",
          "NHibernate": "5.1.1",
          "System.Data.SQLite.Core": "1.0.108",
          "roundhouse": "0.8.9-alpha"
        },
        "runtime": {
          "roundhouse.databases.sqlite.dll": {}
        }
      },
      "roundhouse.databases.sqlserver/1.0.0": {
        "dependencies": {
          "FluentNHibernate": "2.1.2",
          "Iesi.Collections": "4.0.4",
          "NHibernate": "5.1.1",
          "Polly": "5.9.0",
          "System.Data.SqlClient": "4.4.3",
          "roundhouse": "0.8.9-alpha"
        },
        "runtime": {
          "roundhouse.databases.sqlserver.dll": {}
        }
      },
      "roundhouse.databases.sqlserver2000/1.0.0": {
        "dependencies": {
          "FluentNHibernate": "2.1.2",
          "Iesi.Collections": "4.0.4",
          "NHibernate": "5.1.1",
          "roundhouse": "0.8.9-alpha"
        },
        "runtime": {
          "roundhouse.databases.sqlserver2000.dll": {}
        }
      },
      "roundhouse.databases.sqlserverce/1.0.0": {
        "dependencies": {
          "FluentNHibernate": "2.1.2",
          "Iesi.Collections": "4.0.4",
          "Microsoft.SqlServer.Compact": "4.0.8876.1",
          "NHibernate": "5.1.1",
          "roundhouse": "0.8.9-alpha"
        },
        "runtime": {
          "roundhouse.databases.sqlserverce.dll": {}
        }
      }
    }
  },
  "libraries": {
    "rh/1.0.0-beta.1+24": {
      "type": "project",
      "serviceable": false,
      "sha512": ""
    },
    "Antlr3.Runtime/3.5.1": {
      "type": "package",
      "serviceable": true,
      "sha512": "sha512-ZwCEpLCLZXkjzf1lYEixp9hgVlYYk33ACHn6xjFyVhGRi2BpoYQez0qtatbetdylASWYTG+cGz0CGR4z66JM4w==",
      "path": "antlr3.runtime/3.5.1",
      "hashPath": "antlr3.runtime.3.5.1.nupkg.sha512"
    },
    "EntityFramework/6.2.0": {
      "type": "package",
      "serviceable": true,
      "sha512": "sha512-ptGyXOf26qLrtn+2doAmylIlCxOnBJANwlyyLrXDmqIk9O18IzLWHyxDwwAyhgXkxmbiaA0WNpRy67WRReInBw==",
      "path": "entityframework/6.2.0",
      "hashPath": "entityframework.6.2.0.nupkg.sha512"
    },
    "FluentNHibernate/2.1.2": {
      "type": "package",
      "serviceable": true,
      "sha512": "sha512-JcSxfsgciJQJDEWGYp1tur4XIEBRYpWquDihFZZhFP0yF1UuXwvC/UxNGawQArw6PpLAaVDJdLZPH1Ot8+8DHQ==",
      "path": "fluentnhibernate/2.1.2",
      "hashPath": "fluentnhibernate.2.1.2.nupkg.sha512"
    },
    "Google.Protobuf/3.5.1": {
      "type": "package",
      "serviceable": true,
      "sha512": "sha512-f2k1VNaB9bfvEsvARzzEL1TZiIpL33KKK3JMH7UANlPlJVptuvsk4qpBZEnz0pORWZOdUHlVwMQuUzFqjJYCxA==",
      "path": "google.protobuf/3.5.1",
      "hashPath": "google.protobuf.3.5.1.nupkg.sha512"
    },
    "Iesi.Collections/4.0.4": {
      "type": "package",
      "serviceable": true,
      "sha512": "sha512-jlebSjv2a7amYfKXEUsPDSf2Yi9r0/FkvvT6Dy7ehl7z8du+dTGqKDu+fYbnE+WuIz/v3prYm1jpBljMrY1p+Q==",
      "path": "iesi.collections/4.0.4",
      "hashPath": "iesi.collections.4.0.4.nupkg.sha512"
    },
    "log4net/2.0.8": {
      "type": "package",
      "serviceable": true,
      "sha512": "sha512-N41MQGHZImiCfn0cUuSBjZxrcNfIQCuCgQP0rpgB3J/NWponEh3lc1LxJEuIsPAR9Oc1jVvfkNNFCY1C5hf9LA==",
      "path": "log4net/2.0.8",
      "hashPath": "log4net.2.0.8.nupkg.sha512"
    },
    "Microsoft.Build.Framework/15.6.85": {
      "type": "package",
      "serviceable": true,
      "sha512": "sha512-hwigmviEq8nOOd973M7jVXhuFXHT9rupUxeJ0sdbsNi6mgiXayUvVkj2k3mKXOusMTkuiYqcYrajr/rM2BJjUA==",
      "path": "microsoft.build.framework/15.6.85",
      "hashPath": "microsoft.build.framework.15.6.85.nupkg.sha512"
    },
    "Microsoft.NETCore.Targets/1.1.0": {
      "type": "package",
      "serviceable": true,
      "sha512": "sha512-ytLLWSzd1X4/wJDCh3AVJCpyMjlt1gM5oHvIb7MvVGzNgSflpyccYmuisFGU5Uc79JahYmVYwgGhc5ZBypTBDA==",
      "path": "microsoft.netcore.targets/1.1.0",
      "hashPath": "microsoft.netcore.targets.1.1.0.nupkg.sha512"
    },
    "Microsoft.SqlServer.Compact/4.0.8876.1": {
      "type": "package",
      "serviceable": true,
      "sha512": "sha512-CKh6YxPd7/FApB3y5/mZyqkTVKDkbYFUf/tbDAwHlKLrIKRlJ7/VPLMqHX0izl4B0Yey+qMIVo7izGTSi/9ang==",
      "path": "microsoft.sqlserver.compact/4.0.8876.1",
      "hashPath": "microsoft.sqlserver.compact.4.0.8876.1.nupkg.sha512"
    },
    "Microsoft.Win32.Primitives/4.0.1": {
      "type": "package",
      "serviceable": true,
      "sha512": "sha512-40UhbH251IiNd3u1/5dc7v8yPl1hWJh5wdTgK7J0eBXgHe7iRsgukdn/eXGS0u9xNTRzHisn51yo7qnl700qfQ==",
      "path": "microsoft.win32.primitives/4.0.1",
      "hashPath": "microsoft.win32.primitives.4.0.1.nupkg.sha512"
    },
    "Microsoft.Win32.Registry/4.4.0": {
      "type": "package",
      "serviceable": true,
      "sha512": "sha512-dA36TlNVn/XfrZtmf0fiI/z1nd3Wfp2QVzTdj26pqgP9LFWq0i1hYEUAW50xUjGFYn1+/cP3KGuxT2Yn1OUNBQ==",
      "path": "microsoft.win32.registry/4.4.0",
      "hashPath": "microsoft.win32.registry.4.4.0.nupkg.sha512"
    },
    "MySql.Data/8.0.11": {
      "type": "package",
      "serviceable": true,
      "sha512": "sha512-P5zKcnM2SVtdHD6gfReymJguIYLhNL5Og8Qm5TC9MEsSupsAYrRu4AB4nsbalrjqqv8VHBqVREWsXg9lY+q03A==",
      "path": "mysql.data/8.0.11",
      "hashPath": "mysql.data.8.0.11.nupkg.sha512"
    },
    "Newtonsoft.Json/11.0.2": {
      "type": "package",
      "serviceable": true,
      "sha512": "sha512-IvJe1pj7JHEsP8B8J8DwlMEx8UInrs/x+9oVY+oCD13jpLu4JbJU2WCIsMRn5C4yW9+DgkaO8uiVE5VHKjpmdQ==",
      "path": "newtonsoft.json/11.0.2",
      "hashPath": "newtonsoft.json.11.0.2.nupkg.sha512"
    },
    "NHibernate/5.1.1": {
      "type": "package",
      "serviceable": true,
      "sha512": "sha512-x8zFdjzEfSAzt1uB7Mq9X1hsrGEM1f23HqtUwt2FwF4731L5LV06MwDW5qneSAA95YDhnA44TzarlhiiWLAvEw==",
      "path": "nhibernate/5.1.1",
      "hashPath": "nhibernate.5.1.1.nupkg.sha512"
    },
    "NHibernate.JetDriver/2.0.0.1002": {
      "type": "package",
      "serviceable": true,
      "sha512": "sha512-/VymyqnYBaIiAY9qco2c5N5qrGXm2bmujob5slj2CWsMKp0txxnQzOHp2qTC/FX805voOGulvkw1unSrkscuTQ==",
      "path": "nhibernate.jetdriver/2.0.0.1002",
      "hashPath": "nhibernate.jetdriver.2.0.0.1002.nupkg.sha512"
    },
    "Npgsql/3.2.7": {
      "type": "package",
      "serviceable": true,
      "sha512": "sha512-CxSXzWn/MNbHX8L1xfQSzrZfJEA2Yt5cvT27Az5abmvbqtUY1ab6xAkmBj5FfLyKCIYEnmSrxn1IY1+Jy13oFA==",
      "path": "npgsql/3.2.7",
      "hashPath": "npgsql.3.2.7.nupkg.sha512"
    },
    "Polly/5.9.0": {
      "type": "package",
      "serviceable": true,
      "sha512": "sha512-Gu6lokaAOpj71lu9n2AZaQ0kh8sh24FO54gGEktJwgBXg39gOSoI37pkaRERSKQma/hoL56Gbj30i1EpOb3a1g==",
      "path": "polly/5.9.0",
      "hashPath": "polly.5.9.0.nupkg.sha512"
    },
    "Remotion.Linq/2.1.2": {
      "type": "package",
      "serviceable": true,
      "sha512": "sha512-iEHT2fNOuTxhchbaOks+9Ea4YKvp454T/2mZm7CiUqIbUFl7ruK+2SVSvogkBODdxyk7eCpOAQSsowNxO8kKaw==",
      "path": "remotion.linq/2.1.2",
      "hashPath": "remotion.linq.2.1.2.nupkg.sha512"
    },
    "Remotion.Linq.EagerFetching/2.1.0": {
      "type": "package",
      "serviceable": true,
      "sha512": "sha512-6tVDAvNF34Vow8lU54bVArNrMoSeP21+DVyQ10ogEZocYnv34ZTcLqyQxLI8oeOl9y/kbF1jmmztMQL7FxgSTQ==",
      "path": "remotion.linq.eagerfetching/2.1.0",
      "hashPath": "remotion.linq.eagerfetching.2.1.0.nupkg.sha512"
    },
    "runtime.native.System/4.0.0": {
      "type": "package",
      "serviceable": true,
      "sha512": "sha512-DNEKXbVL8Ib0+vOlX3frcvfWV5PDc/rTxIv3hc/ZdKeBWX/YOeiy2qMOPonRid0eeTk6TPL83YIWI55PjB1oew==",
      "path": "runtime.native.system/4.0.0",
      "hashPath": "runtime.native.system.4.0.0.nupkg.sha512"
    },
    "runtime.native.System.Data.SqlClient.sni/4.4.0": {
      "type": "package",
      "serviceable": true,
      "sha512": "sha512-A8v6PGmk+UGbfWo5Ixup0lPM4swuSwOiayJExZwKIOjTlFFQIsu3QnDXECosBEyrWSPryxBVrdqtJyhK3BaupQ==",
      "path": "runtime.native.system.data.sqlclient.sni/4.4.0",
      "hashPath": "runtime.native.system.data.sqlclient.sni.4.4.0.nupkg.sha512"
    },
    "runtime.native.System.Net.Http/4.0.1": {
      "type": "package",
      "serviceable": true,
      "sha512": "sha512-7QK/ckyuIA8GTxWsxGO1trNYnlu85BoIsgeJlMxrPRNF/Rv57PEfH7aFAaF6AJMZdC6yPWDfe/NrXytf2YJG7w==",
      "path": "runtime.native.system.net.http/4.0.1",
      "hashPath": "runtime.native.system.net.http.4.0.1.nupkg.sha512"
    },
    "runtime.native.System.Security.Cryptography/4.0.0": {
      "type": "package",
      "serviceable": true,
      "sha512": "sha512-sGhYYKFQLxLHsshORh+sxkcjaDhF5nV5PUFh43Tc89eJoKjRNL3ZwlQpvmvNVvdERa9iatHG6uYl/GeqwiqCLw==",
      "path": "runtime.native.system.security.cryptography/4.0.0",
      "hashPath": "runtime.native.system.security.cryptography.4.0.0.nupkg.sha512"
    },
    "runtime.win-arm64.runtime.native.System.Data.SqlClient.sni/4.4.0": {
      "type": "package",
      "serviceable": true,
      "sha512": "sha512-LbrynESTp3bm5O/+jGL8v0Qg5SJlTV08lpIpFesXjF6uGNMWqFnUQbYBJwZTeua6E/Y7FIM1C54Ey1btLWupdg==",
      "path": "runtime.win-arm64.runtime.native.system.data.sqlclient.sni/4.4.0",
      "hashPath": "runtime.win-arm64.runtime.native.system.data.sqlclient.sni.4.4.0.nupkg.sha512"
    },
    "runtime.win-x64.runtime.native.System.Data.SqlClient.sni/4.4.0": {
      "type": "package",
      "serviceable": true,
      "sha512": "sha512-38ugOfkYJqJoX9g6EYRlZB5U2ZJH51UP8ptxZgdpS07FgOEToV+lS11ouNK2PM12Pr6X/PpT5jK82G3DwH/SxQ==",
      "path": "runtime.win-x64.runtime.native.system.data.sqlclient.sni/4.4.0",
      "hashPath": "runtime.win-x64.runtime.native.system.data.sqlclient.sni.4.4.0.nupkg.sha512"
    },
    "runtime.win-x86.runtime.native.System.Data.SqlClient.sni/4.4.0": {
      "type": "package",
      "serviceable": true,
      "sha512": "sha512-YhEdSQUsTx+C8m8Bw7ar5/VesXvCFMItyZF7G1AUY+OM0VPZUOeAVpJ4Wl6fydBGUYZxojTDR3I6Bj/+BPkJNA==",
      "path": "runtime.win-x86.runtime.native.system.data.sqlclient.sni/4.4.0",
      "hashPath": "runtime.win-x86.runtime.native.system.data.sqlclient.sni.4.4.0.nupkg.sha512"
    },
    "StructureMap/4.6.1": {
      "type": "package",
      "serviceable": true,
      "sha512": "sha512-Zwp2bvFOS7bDC4UAD5TuJEbdLN9q0ly761vTzD2t+NqyDF0CpmuB2/8ZzwnVlzwPPSh1e4RqG4LRDx4fX3VdSw==",
      "path": "structuremap/4.6.1",
      "hashPath": "structuremap.4.6.1.nupkg.sha512"
    },
    "System.AppContext/4.1.0": {
      "type": "package",
      "serviceable": true,
      "sha512": "sha512-w3pS30dZ7vMrh6UbF1jwrdkJ9vNmRuKPob6IRwAmEOYNXNtL5tLV/byIp7i9HkGCf7+AY3oCYSmfgPAJrshggA==",
      "path": "system.appcontext/4.1.0",
      "hashPath": "system.appcontext.4.1.0.nupkg.sha512"
    },
    "System.Collections/4.3.0": {
      "type": "package",
      "serviceable": true,
      "sha512": "sha512-IBm+Q1J1tm1WL8i75kHNGMciYO++PKuUCG5t+mjcZ7bseyz553hk+eMzDCj7PA4KBxH231a/9WYb8lhrDv1iRw==",
      "path": "system.collections/4.3.0",
      "hashPath": "system.collections.4.3.0.nupkg.sha512"
    },
    "System.Collections.Concurrent/4.3.0": {
      "type": "package",
      "serviceable": true,
      "sha512": "sha512-5ulfVe0tzqwrRQMEIh6vObV+kmppVjD55Dd0UE6mZTy/5msJB0X9L/9STB09xYzHZiOi7bf85QGCDdFPVSs40A==",
      "path": "system.collections.concurrent/4.3.0",
      "hashPath": "system.collections.concurrent.4.3.0.nupkg.sha512"
    },
    "System.Collections.Immutable/1.2.0": {
      "type": "package",
      "serviceable": true,
      "sha512": "sha512-7y++CtRRbrmv38i+J+tlt4wO/IlKAUOqZVy5x+Mk37ldSKqm/4V9tUmm+k/yTMJ8F9R46yzd7ogBA7OwDJ1TxQ==",
      "path": "system.collections.immutable/1.2.0",
      "hashPath": "system.collections.immutable.1.2.0.nupkg.sha512"
    },
    "System.Collections.NonGeneric/4.0.1": {
      "type": "package",
      "serviceable": true,
      "sha512": "sha512-+gAtMrXeMUwTUd05i43vibz7SJbxhIoIfc5OVHkWxC4wJ4Jnyk4lmJQBlYpoWzPqFn3JGzRsVKO7lN6lasRepg==",
      "path": "system.collections.nongeneric/4.0.1",
      "hashPath": "system.collections.nongeneric.4.0.1.nupkg.sha512"
    },
    "System.Configuration.ConfigurationManager/4.4.1": {
      "type": "package",
      "serviceable": true,
      "sha512": "sha512-jz3TWKMAeuDEyrPCK5Jyt4bzQcmzUIMcY9Ud6PkElFxTfnsihV+9N/UCqvxe1z5gc7jMYAnj7V1COMS9QKIuHQ==",
      "path": "system.configuration.configurationmanager/4.4.1",
      "hashPath": "system.configuration.configurationmanager.4.4.1.nupkg.sha512"
    },
    "System.Console/4.0.0": {
      "type": "package",
      "serviceable": true,
      "sha512": "sha512-vwhqCtbN7lLGfu+ZkVTVmIcznEFuBFF7qmYzPj+gsrXPUJILCLV1dKbX6akrGp2bFbk9DlwVXC1IM+XUlIgJ5Q==",
      "path": "system.console/4.0.0",
      "hashPath": "system.console.4.0.0.nupkg.sha512"
    },
    "System.Data.Common/4.3.0": {
      "type": "package",
      "serviceable": true,
      "sha512": "sha512-dbKcJI+r5ri3r+aU/rVqN574fErx+ja8wPqeqamATb3t2LiSvYpkEqS9qlLKWmaqXfjieNXxzSptAuwvpDwVhA==",
      "path": "system.data.common/4.3.0",
      "hashPath": "system.data.common.4.3.0.nupkg.sha512"
    },
    "System.Data.SqlClient/4.4.3": {
      "type": "package",
      "serviceable": true,
      "sha512": "sha512-D1hEOS1oPLJ6WcGCzpTWe8SauWVxnDoDTUWhv5XCNdRm/QeSUk4BQ3ZDe7BH+zNVHDBkPYjVzpVjnCl43eOSGg==",
      "path": "system.data.sqlclient/4.4.3",
      "hashPath": "system.data.sqlclient.4.4.3.nupkg.sha512"
    },
    "System.Data.SQLite.Core/1.0.108": {
      "type": "package",
      "serviceable": true,
      "sha512": "sha512-BwfMIy9q4OBRCKlAPMOfu2SuVm/5sfHHCqIWqT9n3U4ytmv9vXSXIkpntmYACBbwcTFh1tqcoJPSLKFOsD5ruA==",
      "path": "system.data.sqlite.core/1.0.108",
      "hashPath": "system.data.sqlite.core.1.0.108.nupkg.sha512"
    },
    "System.Diagnostics.Debug/4.3.0": {
      "type": "package",
      "serviceable": true,
      "sha512": "sha512-n32WASxghwyuvm8kdm5sfQGWBGUV0YqGqcWIFHZlQ346GWNJkWNiZcZgXnpVfqhltZuGHq6oXoO45Dc90d/ezw==",
      "path": "system.diagnostics.debug/4.3.0",
      "hashPath": "system.diagnostics.debug.4.3.0.nupkg.sha512"
    },
    "System.Diagnostics.DiagnosticSource/4.0.0": {
      "type": "package",
      "serviceable": true,
      "sha512": "sha512-MWPbip+46U+IbrQ3VyPIgNwIl9JmXoT5jx6TJkBtWNvB6e2D88T7gOHlTw0Qg0sAgugqMIRSTCzdT3d5BEgD/w==",
      "path": "system.diagnostics.diagnosticsource/4.0.0",
      "hashPath": "system.diagnostics.diagnosticsource.4.0.0.nupkg.sha512"
    },
    "System.Diagnostics.Process/4.1.0": {
      "type": "package",
      "serviceable": true,
      "sha512": "sha512-CJA8gVTTP6hWZpdCNoEGI+qPvUTx1Jfvp6javIvbLCcVuc8T0XXly733l0mNEde0Op1Pp82R6BqdvRhtmsRjSA==",
      "path": "system.diagnostics.process/4.1.0",
      "hashPath": "system.diagnostics.process.4.1.0.nupkg.sha512"
    },
    "System.Diagnostics.StackTrace/4.0.1": {
      "type": "package",
      "serviceable": true,
      "sha512": "sha512-fbrXGW3C8UV9lHI9QeLuxNGh7PgpFou2FgLLEjXCBbkkx5cuGFPitFPOU/PjLVEXnfahsW4oz2VcHRxzKDZ+Cw==",
      "path": "system.diagnostics.stacktrace/4.0.1",
      "hashPath": "system.diagnostics.stacktrace.4.0.1.nupkg.sha512"
    },
    "System.Diagnostics.TraceSource/4.0.0": {
      "type": "package",
      "serviceable": true,
      "sha512": "sha512-6WVCczFZKXwpWpzd/iJkYnsmWTSFFiU24Xx/YdHXBcu+nFI/ehTgeqdJQFbtRPzbrO3KtRNjvkhtj4t5/WwWsA==",
      "path": "system.diagnostics.tracesource/4.0.0",
      "hashPath": "system.diagnostics.tracesource.4.0.0.nupkg.sha512"
    },
    "System.Diagnostics.Tracing/4.3.0": {
      "type": "package",
      "serviceable": true,
      "sha512": "sha512-pqo6To9izvwPgRiTZnxvslKx784R/DBEqtWV1AXkizx77SQw+oufpr/puMMYgBKJFR2vcexlQjjUnRCEEDMRjQ==",
      "path": "system.diagnostics.tracing/4.3.0",
      "hashPath": "system.diagnostics.tracing.4.3.0.nupkg.sha512"
    },
    "System.Globalization/4.3.0": {
      "type": "package",
      "serviceable": true,
      "sha512": "sha512-5ay4bV2/N1RP5XY8xUjQ/qjcdwxkb4vlpuoafj74xrohY6sh6jkNWCWmfycZE4/5qlOxZdtF3wL+KLYdp+7irw==",
      "path": "system.globalization/4.3.0",
      "hashPath": "system.globalization.4.3.0.nupkg.sha512"
    },
    "System.Globalization.Calendars/4.0.1": {
      "type": "package",
      "serviceable": true,
      "sha512": "sha512-ZeeAOUnZbHuo2g41jmBBKFvxz2VMClscoHCknkpGvdsWbNr5qty3HyQog3yQIfJusZwiXexJu/I33pSI/iC/ig==",
      "path": "system.globalization.calendars/4.0.1",
      "hashPath": "system.globalization.calendars.4.0.1.nupkg.sha512"
    },
    "System.Globalization.Extensions/4.0.1": {
      "type": "package",
      "serviceable": true,
      "sha512": "sha512-oxDCUhusk5gwMXtc/ldgy3TzCLXK9Ltho/YJSYIQc7XahecWZyD6D2qCMpe2ho48mjKwaQN62Ek2vXUIiUAz0g==",
      "path": "system.globalization.extensions/4.0.1",
      "hashPath": "system.globalization.extensions.4.0.1.nupkg.sha512"
    },
    "System.IO/4.3.0": {
      "type": "package",
      "serviceable": true,
      "sha512": "sha512-L5YORr8xPIUjmF7mvHMtxTePiHKxsTUckAACjt7fzhHYJPih4WaJwptI9ZyInkdRaOCVjVCoIogsLSR2uWkwsw==",
      "path": "system.io/4.3.0",
      "hashPath": "system.io.4.3.0.nupkg.sha512"
    },
    "System.IO.FileSystem/4.0.1": {
      "type": "package",
      "serviceable": true,
      "sha512": "sha512-08I5VKjKl4LrlSzz5rd6aDrwhZJHHLY1Od+JGNomBfKifHMYAfgxZdD4u18fXsuXanYC3cEp3ExDfYpwVFaIRQ==",
      "path": "system.io.filesystem/4.0.1",
      "hashPath": "system.io.filesystem.4.0.1.nupkg.sha512"
    },
    "System.IO.FileSystem.Primitives/4.0.1": {
      "type": "package",
      "serviceable": true,
      "sha512": "sha512-I0zrWl9Fm6gSHzAG8ZPrkgOmrwDs0KzwEDd6hX55wK+j490+aKuIqjjYnooFh9fama4oeB7gPuG9b7KKYqaMNA==",
      "path": "system.io.filesystem.primitives/4.0.1",
      "hashPath": "system.io.filesystem.primitives.4.0.1.nupkg.sha512"
    },
    "System.IO.FileSystem.Watcher/4.0.0": {
      "type": "package",
      "serviceable": true,
      "sha512": "sha512-m7sNGJN1OQTPOW9wy7DuZhaIehm8aGFCsfL5GTdYqD/fUTqCMHmjkm7C4RoY66M7W+n64Rzqw8Bsctg4ZnJBYQ==",
      "path": "system.io.filesystem.watcher/4.0.0",
      "hashPath": "system.io.filesystem.watcher.4.0.0.nupkg.sha512"
    },
    "System.Linq/4.3.0": {
      "type": "package",
      "serviceable": true,
      "sha512": "sha512-LQhiK6Bsl3fMskpyJ32yh2H9N+m98F4JHiNB1wLQsb9Ct0WJg1ExstYA1jnNknj78fXZwjjnTfL4n+GbjY9LkA==",
      "path": "system.linq/4.3.0",
      "hashPath": "system.linq.4.3.0.nupkg.sha512"
    },
    "System.Linq.Expressions/4.1.0": {
      "type": "package",
      "serviceable": true,
      "sha512": "sha512-TUGmHahVwsz0i5mJcaYsmB/CEEXqU0rxuE0DW5osx/M3ugsNX0BkiPLdlQAzr0wMI4p5AWraYcsvBlYe0Y/+WA==",
      "path": "system.linq.expressions/4.1.0",
      "hashPath": "system.linq.expressions.4.1.0.nupkg.sha512"
    },
    "System.Linq.Queryable/4.0.1": {
      "type": "package",
      "serviceable": true,
      "sha512": "sha512-98VGjWNUTznT+uBJa6XR0GGcnRt+2Agi6765xjBSziIKoygvbI2tottYyXqM+J+hF5kOQ0FIHTIWuqMxcvd74Q==",
      "path": "system.linq.queryable/4.0.1",
      "hashPath": "system.linq.queryable.4.0.1.nupkg.sha512"
    },
    "System.Net.Http/4.1.0": {
      "type": "package",
      "serviceable": true,
      "sha512": "sha512-fuKitpcA/WliscOelh5ju/E87nHK+ERTuNcIXtb5SfDY0nVpsuYGX58ySTeg9feEFCkf1lLFzcbpDQMQpvv+5w==",
      "path": "system.net.http/4.1.0",
      "hashPath": "system.net.http.4.1.0.nupkg.sha512"
    },
    "System.Net.Http.WinHttpHandler/4.4.0": {
      "type": "package",
      "serviceable": true,
      "sha512": "sha512-ZmsFZIZ4PL2UfUlfj4KCzzAGGE2SF39ENIqtvfgu0bwMEAe3J3CqZr765E2W6eQQtNK08/8DpHcsA0sAKZdEtA==",
      "path": "system.net.http.winhttphandler/4.4.0",
      "hashPath": "system.net.http.winhttphandler.4.4.0.nupkg.sha512"
    },
    "System.Net.NameResolution/4.0.0": {
      "type": "package",
      "serviceable": true,
      "sha512": "sha512-sqJThFWtBDZ+AABdr1CZVJM3hKUEYURkTWjYm+EmqkSUq9A79uwA4HDN7tiyVj/EZGCZlP9DopZdgGgbazc+Lg==",
      "path": "system.net.nameresolution/4.0.0",
      "hashPath": "system.net.nameresolution.4.0.0.nupkg.sha512"
    },
    "System.Net.Primitives/4.0.11": {
      "type": "package",
      "serviceable": true,
      "sha512": "sha512-Y9vR1VkzAnP/fN+iekahdVPRuDZYSJQ1aNymitNGI0XBxTEeeozAJbJebLepZ6RfBasYDW2CQtrTF+1F3boQ4A==",
      "path": "system.net.primitives/4.0.11",
      "hashPath": "system.net.primitives.4.0.11.nupkg.sha512"
    },
    "System.Net.Requests/4.0.11": {
      "type": "package",
      "serviceable": true,
      "sha512": "sha512-rfbhvovaS2kEQnhVi+Cn8pSzHrI9IMxmWcr2Ept3WamcfuqjMdkJBnqRoY7KuRe7x7hS3/NxUAqpb4aPUtBhmw==",
      "path": "system.net.requests/4.0.11",
      "hashPath": "system.net.requests.4.0.11.nupkg.sha512"
    },
    "System.Net.Sockets/4.1.0": {
      "type": "package",
      "serviceable": true,
      "sha512": "sha512-LHxBb2D2a4n8Ztg+z6NxhFcqGiz2NgnSpcR1Px+vOveBsL92t/w58w/ZJJFVYnpjjmwP20Wr4sgVnx9wCaXq2g==",
      "path": "system.net.sockets/4.1.0",
      "hashPath": "system.net.sockets.4.1.0.nupkg.sha512"
    },
    "System.Net.WebHeaderCollection/4.0.1": {
      "type": "package",
      "serviceable": true,
      "sha512": "sha512-LSShC0/TQjubUV6Wlqswyjj8heBwqRGkROfCGL9rMHD4/LbhLjQJcza2nlWeQEmpbGGWcVgS5FPWPTJt0CabXQ==",
      "path": "system.net.webheadercollection/4.0.1",
      "hashPath": "system.net.webheadercollection.4.0.1.nupkg.sha512"
    },
    "System.ObjectModel/4.0.12": {
      "type": "package",
      "serviceable": true,
      "sha512": "sha512-G+qPrsmijb1IIr2S8kKljWYEpUK5iXCKMwEnbYc32Y/SIy4x6ceIeptRZ1nAcxLEvL/dB0PFEazv5CxXESjobQ==",
      "path": "system.objectmodel/4.0.12",
      "hashPath": "system.objectmodel.4.0.12.nupkg.sha512"
    },
    "System.Private.ServiceModel/4.4.0": {
      "type": "package",
      "serviceable": true,
      "sha512": "sha512-lED0s9Lfo2TdniGlFY2rdK1wygFJ7dPRaTHR2Z409nGWfFG1YMuAlrfMhSeYFJ5pbffAlOBxb8hvoYxP3LJ6mg==",
      "path": "system.private.servicemodel/4.4.0",
      "hashPath": "system.private.servicemodel.4.4.0.nupkg.sha512"
    },
    "System.Reflection/4.3.0": {
      "type": "package",
      "serviceable": true,
      "sha512": "sha512-qT7GlIYUEz3NmWBtF06oUbjQMrbtDcw4hCjhKDz3wjHbHMuVvkBKZztn64sJ1AwgtmWLmD7Bn7QHTLooiaXSPw==",
      "path": "system.reflection/4.3.0",
      "hashPath": "system.reflection.4.3.0.nupkg.sha512"
    },
    "System.Reflection.DispatchProxy/4.4.0": {
      "type": "package",
      "serviceable": true,
      "sha512": "sha512-xK6JE0mpsBD+T0qu3V6dmVRa06PxAvIIM/zSjouqP7Sk6X+FQj+9XFRz9GmZk9aJGMU1LX6AgTZIlsYZ64QKsw==",
      "path": "system.reflection.dispatchproxy/4.4.0",
      "hashPath": "system.reflection.dispatchproxy.4.4.0.nupkg.sha512"
    },
    "System.Reflection.Emit/4.0.1": {
      "type": "package",
      "serviceable": true,
      "sha512": "sha512-y2TJSEwXOZ6mCpTINC/uWoUBhjrJfgmsKy5g2ueHRTNwdsnznqu7vao9S8PH/FPk+iMSaDrP99hO7cp6vBYbAA==",
      "path": "system.reflection.emit/4.0.1",
      "hashPath": "system.reflection.emit.4.0.1.nupkg.sha512"
    },
    "System.Reflection.Emit.ILGeneration/4.3.0": {
      "type": "package",
      "serviceable": true,
      "sha512": "sha512-6G4nJb+/mmQSngUQGK/4xlVWYKgAyQPiMP9QAEG/ZKCY41FNcFixPC719nEe4pCvU4fTigTyUQpR1KSIbReYHw==",
      "path": "system.reflection.emit.ilgeneration/4.3.0",
      "hashPath": "system.reflection.emit.ilgeneration.4.3.0.nupkg.sha512"
    },
    "System.Reflection.Emit.Lightweight/4.3.0": {
      "type": "package",
      "serviceable": true,
      "sha512": "sha512-uoqB3X+WPxzMh1UoPwDlWgTGulmh1OkhGQQeQVMH6l/fq6scQnOfN1WGctzXGWVSOyLlgn1mUyfkPbBfPIvXBg==",
      "path": "system.reflection.emit.lightweight/4.3.0",
      "hashPath": "system.reflection.emit.lightweight.4.3.0.nupkg.sha512"
    },
    "System.Reflection.Extensions/4.0.1": {
      "type": "package",
      "serviceable": true,
      "sha512": "sha512-JuZ5RVJxcj4/7Q6DslMC+IdnUBfjp8wATD2lOx++9Xc/eZKhU9moBkX1jx/9T7DI8nP23bp2tJ/k6dixBCMCxg==",
      "path": "system.reflection.extensions/4.0.1",
      "hashPath": "system.reflection.extensions.4.0.1.nupkg.sha512"
    },
    "System.Reflection.Metadata/1.3.0": {
      "type": "package",
      "serviceable": true,
      "sha512": "sha512-Tw5swJhj31EBYyf2G4iXCf14FcpyyFNnhRBeG+FhsMHrBKaz1VHUvni9WHhGjsYZtU2k9uHDThVmiqUdmprzhg==",
      "path": "system.reflection.metadata/1.3.0",
      "hashPath": "system.reflection.metadata.1.3.0.nupkg.sha512"
    },
    "System.Reflection.Primitives/4.3.0": {
      "type": "package",
      "serviceable": true,
      "sha512": "sha512-ix3iL33E9DdpLwJa087WQTvan+QuEfwHQZqf+2hjb58Gn4Vi/qVaOCo7tNnb5+l8szXKywSSM0//ucUIyF870g==",
      "path": "system.reflection.primitives/4.3.0",
      "hashPath": "system.reflection.primitives.4.3.0.nupkg.sha512"
    },
    "System.Reflection.TypeExtensions/4.4.0": {
      "type": "package",
      "serviceable": true,
      "sha512": "sha512-dkmh/ySlwnXJp/1qYP9uyKkCK1CXR/REFzl7abHcArxBcV91mY2CgrrzSRA5Z/X4MevJWwXsklGRdR3A7K9zbg==",
      "path": "system.reflection.typeextensions/4.4.0",
      "hashPath": "system.reflection.typeextensions.4.4.0.nupkg.sha512"
    },
    "System.Resources.ResourceManager/4.3.0": {
      "type": "package",
      "serviceable": true,
      "sha512": "sha512-zCYivSL6Sp67gMkcczNln8WYw7Y1dGa8CPVTs385VbB25g11Kk5xoO8TytK6Qb5HO8n0AHCNsp6Ltv7EEazh1Q==",
      "path": "system.resources.resourcemanager/4.3.0",
      "hashPath": "system.resources.resourcemanager.4.3.0.nupkg.sha512"
    },
    "System.Runtime/4.3.0": {
      "type": "package",
      "serviceable": true,
      "sha512": "sha512-KijrInhiP+YGs4ZKcT1sGdgrftjfH4gZrBRKJfKsTvvqFclaA6hGeWzXLU2XJ2nNy3P7htJ4g9UDE+KjLANTCQ==",
      "path": "system.runtime/4.3.0",
      "hashPath": "system.runtime.4.3.0.nupkg.sha512"
    },
    "System.Runtime.Extensions/4.3.0": {
      "type": "package",
      "serviceable": true,
      "sha512": "sha512-FbMqvUhS2mHvUrBQdje6QnAf7SPmnx48CN9iuBJ18+E5TKA+Tn5eFxvkVIUZjkIkeepYm4Ap5Rq5BTnVG5jHnA==",
      "path": "system.runtime.extensions/4.3.0",
      "hashPath": "system.runtime.extensions.4.3.0.nupkg.sha512"
    },
    "System.Runtime.Handles/4.0.1": {
      "type": "package",
      "serviceable": true,
      "sha512": "sha512-46v/VwHLqhl2YiI358VAjpHfTQnTLvz+uI2SpqaqqWB5nunTBoMqh1KoTtgHKfxj2lDgj3srghoQgrNhCSWlyw==",
      "path": "system.runtime.handles/4.0.1",
      "hashPath": "system.runtime.handles.4.0.1.nupkg.sha512"
    },
    "System.Runtime.InteropServices/4.1.0": {
      "type": "package",
      "serviceable": true,
      "sha512": "sha512-q+YLbiXVtepc61oCD4utJgutYfbD3zm2osBCbIhpHjy1zV2dMZSuM9oroRvHPnPTnpCdRat5SWdX6jIKqRxoXA==",
      "path": "system.runtime.interopservices/4.1.0",
      "hashPath": "system.runtime.interopservices.4.1.0.nupkg.sha512"
    },
    "System.Runtime.InteropServices.RuntimeInformation/4.0.0": {
      "type": "package",
      "serviceable": true,
      "sha512": "sha512-kJA9A0NLUwHZ0lLdoMZpubsnHoJyLjZSXTM6xjqw+zMPRg6jWGGCHf4rPDV7vyWb4m0NN2B9hntDL83FSG7pYQ==",
      "path": "system.runtime.interopservices.runtimeinformation/4.0.0",
      "hashPath": "system.runtime.interopservices.runtimeinformation.4.0.0.nupkg.sha512"
    },
    "System.Runtime.Loader/4.3.0": {
      "type": "package",
      "serviceable": true,
      "sha512": "sha512-Py46LVdJ7HweR3VTkIGAIVCu1h/HUc16o3+xJcPaJ6tgQxCBDCqlVlv8LBmagt3fBOrbDpOAUo7F0S27QZkKVg==",
      "path": "system.runtime.loader/4.3.0",
      "hashPath": "system.runtime.loader.4.3.0.nupkg.sha512"
    },
    "System.Runtime.Numerics/4.0.1": {
      "type": "package",
      "serviceable": true,
      "sha512": "sha512-arzaxPIx4yHFot2FXl9vuJZ4c1h2xS9afpiMbiXi7//xWaGLzbvDKEe76uXzWG+93It6RgaM4eDMbbyQklOLsw==",
      "path": "system.runtime.numerics/4.0.1",
      "hashPath": "system.runtime.numerics.4.0.1.nupkg.sha512"
    },
    "System.Runtime.Serialization.Formatters/4.3.0": {
      "type": "package",
      "serviceable": true,
      "sha512": "sha512-KT591AkTNFOTbhZlaeMVvfax3RqhH1EJlcwF50Wm7sfnBLuHiOeZRRKrr1ns3NESkM20KPZ5Ol/ueMq5vg4QoQ==",
      "path": "system.runtime.serialization.formatters/4.3.0",
      "hashPath": "system.runtime.serialization.formatters.4.3.0.nupkg.sha512"
    },
    "System.Runtime.Serialization.Primitives/4.3.0": {
      "type": "package",
      "serviceable": true,
      "sha512": "sha512-mbwZ7frfdkCI+5IEze5kZu1WoCbEAM+3djovVzL2uKfaY4+7aTSV0lHHcHxuZvtg+qLxpcFXd2nWhankPSHD0g==",
      "path": "system.runtime.serialization.primitives/4.3.0",
      "hashPath": "system.runtime.serialization.primitives.4.3.0.nupkg.sha512"
    },
    "System.Security.AccessControl/4.4.0": {
      "type": "package",
      "serviceable": true,
      "sha512": "sha512-2NRFPX/V81ucKQmqNgGBZrKGH/5ejsvivSGMRum0SMgPnJxwhuNkzVS1+7gC3R2X0f57CtwrPrXPPSe6nOp82g==",
      "path": "system.security.accesscontrol/4.4.0",
      "hashPath": "system.security.accesscontrol.4.4.0.nupkg.sha512"
    },
    "System.Security.Cryptography.Algorithms/4.2.0": {
      "type": "package",
      "serviceable": true,
      "sha512": "sha512-ypWF2HdeSZDwZsZDXq7UQ+3ZnlP/mzJ5ksVD6wdyIkoTae3mFylMu/7A7yDg8AaR/6GAkCZAPM0g3iLcCbsSZA==",
      "path": "system.security.cryptography.algorithms/4.2.0",
      "hashPath": "system.security.cryptography.algorithms.4.2.0.nupkg.sha512"
    },
    "System.Security.Cryptography.Cng/4.2.0": {
      "type": "package",
      "serviceable": true,
      "sha512": "sha512-9sO/1+vzdDps/akVM7D8Pw6KFEVGuYrj28fOcDn1QsKxDfdRtx8RlBMDi7jh5qS3d40f6Vjih6TMqVhNe1+6sw==",
      "path": "system.security.cryptography.cng/4.2.0",
      "hashPath": "system.security.cryptography.cng.4.2.0.nupkg.sha512"
    },
    "System.Security.Cryptography.Csp/4.0.0": {
      "type": "package",
      "serviceable": true,
      "sha512": "sha512-cIBvk7WmBmoVc+a29xAbHzCyrIueZvxmBaoKt27KYoRrBWBb2A4D3oA4sI7DPt+ddJi6ZW9PUO7heR6aHgeFGw==",
      "path": "system.security.cryptography.csp/4.0.0",
      "hashPath": "system.security.cryptography.csp.4.0.0.nupkg.sha512"
    },
    "System.Security.Cryptography.Encoding/4.0.0": {
      "type": "package",
      "serviceable": true,
      "sha512": "sha512-WkaZgiIy9VZ/+hG1gVJpSWcrsFwtliv/LbRDJXEqin1gniW+PrEmcO6BOMl5apWx7NfuIsmNIWVxK2QaUaAqTQ==",
      "path": "system.security.cryptography.encoding/4.0.0",
      "hashPath": "system.security.cryptography.encoding.4.0.0.nupkg.sha512"
    },
    "System.Security.Cryptography.OpenSsl/4.0.0": {
      "type": "package",
      "serviceable": true,
      "sha512": "sha512-4XMAn2ovgXcdFVVhlSFIYjEcD9cN6GE33fZH9QFpIoWrAHriC5WRJT+roGGLiS6FoHhsNB/iLuVipecz9g1lGA==",
      "path": "system.security.cryptography.openssl/4.0.0",
      "hashPath": "system.security.cryptography.openssl.4.0.0.nupkg.sha512"
    },
    "System.Security.Cryptography.Primitives/4.0.0": {
      "type": "package",
      "serviceable": true,
      "sha512": "sha512-U/3v0YndUrBl09XULaFWMuvg1rsvJ2EbmOg3Lw4x4Ster8xeewV6b6YFS9vkD1E5mS8BMp0dHbDTb3ULaisW+A==",
      "path": "system.security.cryptography.primitives/4.0.0",
      "hashPath": "system.security.cryptography.primitives.4.0.0.nupkg.sha512"
    },
    "System.Security.Cryptography.ProtectedData/4.4.0": {
      "type": "package",
      "serviceable": true,
      "sha512": "sha512-cJV7ScGW7EhatRsjehfvvYVBvtiSMKgN8bOVI0bQhnF5bU7vnHVIsH49Kva7i7GWaWYvmEzkYVk1TC+gZYBEog==",
      "path": "system.security.cryptography.protecteddata/4.4.0",
      "hashPath": "system.security.cryptography.protecteddata.4.4.0.nupkg.sha512"
    },
    "System.Security.Cryptography.X509Certificates/4.1.0": {
      "type": "package",
      "serviceable": true,
      "sha512": "sha512-idfn2csec9C3vOZPJwnobZVXvWqfn1Ji7IAMMJtEYuybQ+GXvd9FYxH5LMOqxQuQDb6lguu3sjt96Qx/la8hNg==",
      "path": "system.security.cryptography.x509certificates/4.1.0",
      "hashPath": "system.security.cryptography.x509certificates.4.1.0.nupkg.sha512"
    },
    "System.Security.Permissions/4.4.1": {
      "type": "package",
      "serviceable": true,
      "sha512": "sha512-l8IxQ9mEAkKv85uoEcjcYhrh+yTLZtLgNqb2T7QChTdKXh45EUnmKd+Ckdt1D+VYW2dk2Pb5MT+0zwQ74Jd2Xg==",
      "path": "system.security.permissions/4.4.1",
      "hashPath": "system.security.permissions.4.4.1.nupkg.sha512"
    },
    "System.Security.Principal.Windows/4.4.1": {
      "type": "package",
      "serviceable": true,
      "sha512": "sha512-h3ah5DRH1dD0WbtLVZrLAUkkMYL9N3gQ/qrJuc65GzyR4hsaPD0YjEwmpu5+2tNT8BQktW5xw7KlgoY83jqd7w==",
      "path": "system.security.principal.windows/4.4.1",
      "hashPath": "system.security.principal.windows.4.4.1.nupkg.sha512"
    },
    "System.ServiceModel.Primitives/4.4.0": {
      "type": "package",
      "serviceable": true,
      "sha512": "sha512-6rATyMUeeOPVY7XzoneoyzGKVCc62gGl/A6SKrlY0dX0bnMprIrXZF1AXy9Y8ne49JU/2RGGeldFbATYONc/XQ==",
      "path": "system.servicemodel.primitives/4.4.0",
      "hashPath": "system.servicemodel.primitives.4.4.0.nupkg.sha512"
    },
    "System.Text.Encoding/4.3.0": {
      "type": "package",
      "serviceable": true,
      "sha512": "sha512-SzIbqxzENo10YtPeMhvqI0dfCqE4Q+Fud7YF7jEP4MuZ3Nza9w+QGOFQJ+hyg7WIDtRKsN0cnkodSW5//6kqVw==",
      "path": "system.text.encoding/4.3.0",
      "hashPath": "system.text.encoding.4.3.0.nupkg.sha512"
    },
    "System.Text.Encoding.CodePages/4.4.0": {
      "type": "package",
      "serviceable": true,
      "sha512": "sha512-6JX7ZdaceBiLKLkYt8zJcp4xTJd1uYyXXEkPw6mnlUIjh1gZPIVKPtRXPmY5kLf6DwZmf5YLwR3QUrRonl7l0A==",
      "path": "system.text.encoding.codepages/4.4.0",
      "hashPath": "system.text.encoding.codepages.4.4.0.nupkg.sha512"
    },
    "System.Text.Encoding.Extensions/4.0.11": {
      "type": "package",
      "serviceable": true,
      "sha512": "sha512-BfoPCeZUlJKbYRIlgIQK27uDjXer6FmoxHeA+Dvo29hQUJUXBj44CBKTDnpPKrj9nnLwrxvAL4Nzt78rKD5PIA==",
      "path": "system.text.encoding.extensions/4.0.11",
      "hashPath": "system.text.encoding.extensions.4.0.11.nupkg.sha512"
    },
    "System.Text.RegularExpressions/4.3.0": {
      "type": "package",
      "serviceable": true,
      "sha512": "sha512-bP8xKEESq6EOKFvRYGUwPkLGtZre1Y3QQKLmY21WgNLTxDs8Aff0AeKEXZL0TgkL8SrIkE7lCnXFTi9MqdAHMg==",
      "path": "system.text.regularexpressions/4.3.0",
      "hashPath": "system.text.regularexpressions.4.3.0.nupkg.sha512"
    },
    "System.Threading/4.3.0": {
      "type": "package",
      "serviceable": true,
      "sha512": "sha512-7VnBJCVkxFIES+qCjPN/sGN0RWI5xAE7/kfD2qfJPBMEoMeFzI74bb7CjL0C97TJ1uN35Ah85mM4acCPh0zyBA==",
      "path": "system.threading/4.3.0",
      "hashPath": "system.threading.4.3.0.nupkg.sha512"
    },
    "System.Threading.Overlapped/4.0.1": {
      "type": "package",
      "serviceable": true,
      "sha512": "sha512-GQ00ISDncm+RXUhVyIafPccPYX2c/k8J9A7kxh0cCkLAvkjG2ISDg91KLxwM1NpLy78NrE1WgZFPd54Ad7fFEw==",
      "path": "system.threading.overlapped/4.0.1",
      "hashPath": "system.threading.overlapped.4.0.1.nupkg.sha512"
    },
    "System.Threading.Tasks/4.3.0": {
      "type": "package",
      "serviceable": true,
      "sha512": "sha512-9Mdk6qutu+3TRSWxzJaC9Sdm3BNYX34FJ2g2Oct/be/BT46JMGexURivTZbkQxL48W4RxvTtG0CZHMRnmbi+Dg==",
      "path": "system.threading.tasks/4.3.0",
      "hashPath": "system.threading.tasks.4.3.0.nupkg.sha512"
    },
    "System.Threading.Tasks.Extensions/4.3.0": {
      "type": "package",
      "serviceable": true,
      "sha512": "sha512-+nyHzRMqBfXjeWbACNqwps8+n2JJJc7E0ALT0dGCaYobvvznjEwiNl6FXhpm/eAIz6FRL3GPRi3B37+R3yHnKw==",
      "path": "system.threading.tasks.extensions/4.3.0",
      "hashPath": "system.threading.tasks.extensions.4.3.0.nupkg.sha512"
    },
    "System.Threading.Tasks.Parallel/4.0.1": {
      "type": "package",
      "serviceable": true,
      "sha512": "sha512-2yuKNfDzfyCojSjbi13Dy4Ww6vse1bB+4iqL2TXSl/4da2NgCPCd8nBYL4YDEj06VQRA2fjFWpoJ7We9xaCgAg==",
      "path": "system.threading.tasks.parallel/4.0.1",
      "hashPath": "system.threading.tasks.parallel.4.0.1.nupkg.sha512"
    },
    "System.Threading.Thread/4.0.0": {
      "type": "package",
      "serviceable": true,
      "sha512": "sha512-CXxZXd0BlbAT8csLu69w+y0EbrH03r9D1zfVTtkqSre7eohCdeDWss17gpvDtnxLd/HkLiRQy4r+DwJqBe/MAw==",
      "path": "system.threading.thread/4.0.0",
      "hashPath": "system.threading.thread.4.0.0.nupkg.sha512"
    },
    "System.Threading.ThreadPool/4.0.10": {
      "type": "package",
      "serviceable": true,
      "sha512": "sha512-FiLvT0i9U3KFqZaWevpM1I1ZXsO6EwKYnIT4CDs5RJqxdsvPoNY9bz0OfcaYcmrJ51q9OSeg1rh2aa6rmf56sg==",
      "path": "system.threading.threadpool/4.0.10",
      "hashPath": "system.threading.threadpool.4.0.10.nupkg.sha512"
    },
    "System.Threading.Timer/4.0.1": {
      "type": "package",
      "serviceable": true,
      "sha512": "sha512-OXjT5aUMNQI6yYuv0TmF5ze9ekjCCYKoTBXY8GKXaelwb05O0DgeGBKd2XIz8C+oGaxqfYagD6QCcvSn/HVz1Q==",
      "path": "system.threading.timer/4.0.1",
      "hashPath": "system.threading.timer.4.0.1.nupkg.sha512"
    },
    "System.Xml.ReaderWriter/4.0.11": {
      "type": "package",
      "serviceable": true,
      "sha512": "sha512-27bWe+fafy63HlR+2AR22jj46OJZkV2jqDA46LIz6x1ZWuKTTW8hiPJuJujij2vSna4KrKxwAUwgDkP0r+jxWQ==",
      "path": "system.xml.readerwriter/4.0.11",
      "hashPath": "system.xml.readerwriter.4.0.11.nupkg.sha512"
    },
    "System.Xml.XmlDocument/4.0.1": {
      "type": "package",
      "serviceable": true,
      "sha512": "sha512-qJV76z/wka0v1PsGzpR/TAzstW3hgW5+OjaR7skV1f242MUDh/0Xsc/st6Km0e+bvtT7kC59+bJD41w6V6gRxw==",
      "path": "system.xml.xmldocument/4.0.1",
      "hashPath": "system.xml.xmldocument.4.0.1.nupkg.sha512"
    },
    "roundhouse/0.8.9-alpha": {
      "type": "project",
      "serviceable": false,
      "sha512": ""
    },
    "roundhouse.databases.mysql/1.0.0": {
      "type": "project",
      "serviceable": false,
      "sha512": ""
    },
    "roundhouse.databases.postgresql/1.0.0": {
      "type": "project",
      "serviceable": false,
      "sha512": ""
    },
    "roundhouse.databases.sqlite/1.0.0": {
      "type": "project",
      "serviceable": false,
      "sha512": ""
    },
    "roundhouse.databases.sqlserver/1.0.0": {
      "type": "project",
      "serviceable": false,
      "sha512": ""
    },
    "roundhouse.databases.sqlserver2000/1.0.0": {
      "type": "project",
      "serviceable": false,
      "sha512": ""
    },
    "roundhouse.databases.sqlserverce/1.0.0": {
      "type": "project",
      "serviceable": false,
      "sha512": ""
    }
  }
}